TID  PRIO  USER     DISK READ  DISK WRITE  SWAPIN     IO>    COMMAND                                                            
    1 be/4 root        0.00 B/s    0.00 B/s  0.00 %  0.00 % init
    2 be/4 root        0.00 B/s    0.00 B/s  0.00 %  0.00 % [kthreadd]
    3 be/4 root        0.00 B/s    0.00 B/s  0.00 %  0.00 % [ksoftirqd/0]
    4 be/4 root        0.00 B/s    0.00 B/s  0.00 %  0.00 % [kworker/0:0]
    5 be/0 root        0.00 B/s    0.00 B/s  0.00 %  0.00 % [kworker/0:0H]
    6 be/4 root        0.00 B/s    0.00 B/s  0.00 %  0.00 % [kworker/u2:0]
    7 be/4 root        0.00 B/s    0.00 B/s  0.00 %  0.00 % [rcu_sched]
    8 be/4 root        0.00 B/s    0.00 B/s  0.00 %  0.00 % [rcuos/0]
    9 be/4 root        0.00 B/s    0.00 B/s  0.00 %  0.00 % [rcu_bh]
   10 be/4 root        0.00 B/s    0.00 B/s  0.00 %  0.00 % [rcuob/0]
   11 rt/4 root        0.00 B/s    0.00 B/s  0.00 %  0.00 % [migration/0]
   12 rt/4 root        0.00 B/s    0.00 B/s  0.00 %  0.00 % [watchdog/0]
   13 be/0 root        0.00 B/s    0.00 B/s  0.00 %  0.00 % [khelper]
   14 be/4 root        0.00 B/s    0.00 B/s  0.00 %  0.00 % [kdevtmpfs]
   15 be/0 root        0.00 B/s    0.00 B/s  0.00 %  0.00 % [netns]
   16 be/4 root        0.00 B/s    0.00 B/s  0.00 %  0.00 % [xenwatch]
   17 be/4 root        0.00 B/s    0.00 B/s  0.00 %  0.00 % [xenbus]
   18 be/0 root        0.00 B/s    0.00 B/s  0.00 %  0.00 % [writeback]
   19 be/0 root        0.00 B/s    0.00 B/s  0.00 %  0.00 % [kintegrityd]
   20 be/0 root        0.00 B/s    0.00 B/s  0.00 %  0.00 % [bioset]
   21 be/0 root        0.00 B/s    0.00 B/s  0.00 %  0.00 % [kworker/u3:0]
   22 be/0 root        0.00 B/s    0.00 B/s  0.00 %  0.00 % [kblockd]
   23 be/0 root        0.00 B/s    0.00 B/s  0.00 %  0.00 % [ata_sff]
   24 be/4 root        0.00 B/s    0.00 B/s  0.00 %  0.00 % [khubd]
   25 be/0 root        0.00 B/s    0.00 B/s  0.00 %  0.00 % [md]
   26 be/0 root        0.00 B/s    0.00 B/s  0.00 %  0.00 % [devfreq_wq]
   27 be/4 root        0.00 B/s    0.00 B/s  0.00 %  0.00 % [kworker/0:1]
   29 be/4 root        0.00 B/s    0.00 B/s  0.00 %  0.00 % [khungtaskd]
   30 be/4 root        0.00 B/s    0.00 B/s  0.00 %  0.00 % [kswapd0]
   31 be/5 root        0.00 B/s    0.00 B/s  0.00 %  0.00 % [ksmd]
   32 be/4 root        0.00 B/s    0.00 B/s  0.00 %  0.00 % [fsnotify_mark]
   33 be/4 root        0.00 B/s    0.00 B/s  0.00 %  0.00 % [ecryptfs-kthrea]
   34 be/0 root        0.00 B/s    0.00 B/s  0.00 %  0.00 % [crypto]
 1067 be/4 mysql       0.00 B/s    0.00 B/s  0.00 %  0.00 % mysqld
 1068 be/4 mysql       0.00 B/s    0.00 B/s  0.00 %  0.00 % mysqld
 1069 be/4 mysql       0.00 B/s    0.00 B/s  0.00 %  0.00 % mysqld
   46 be/0 root        0.00 B/s    0.00 B/s  0.00 %  0.00 % [kthrotld]
   47 be/4 root        0.00 B/s    0.00 B/s  0.00 %  0.00 % [kworker/u2:1]
   48 be/4 root        0.00 B/s    0.00 B/s  0.00 %  0.00 % [khvcd]
 1073 be/4 mysql       0.00 B/s    0.00 B/s  0.00 %  0.00 % mysqld
 1074 be/4 mysql       0.00 B/s    0.00 B/s  0.00 %  0.00 % mysqld
 1075 be/4 mysql       0.00 B/s    0.00 B/s  0.00 %  0.00 % mysqld
 1076 be/4 mysql       0.00 B/s    0.00 B/s  0.00 %  0.00 % mysqld