USER               PID  %CPU %MEM      VSZ    RSS   TT  STAT STARTED      TIME COMMAND
philippesouzamoraesribeiro  2397  17.8  3.3  3510904 277268   ??  S     7:59PM  61:38.78 /Applications/Google Chrome
philippesouzamoraesribeiro  3243   2.3  4.5  3681924 381492   ??  S    12:48PM   0:31.21 /Applications/Google Chrome
_windowserver      182   1.9  0.4  3743464  35328   ??  Ss   Mon06PM  44:11.49 /System/Library/Frameworks/
philippesouzamoraesribeiro   392   1.0  0.7  2704996  55432   ??  S    Mon06PM   0:28.73 /Applications/Utilities/Ter
philippesouzamoraesribeiro  3076   0.9  3.4  3906216 281344   ??  S    11:48AM  10:12.99 /Applications/Google Chrome
philippesouzamoraesribeiro   517   0.5  0.3  3316200  23088   ??  S    Mon06PM  10:38.63 /Applications/Spotify.app/C
philippesouzamoraesribeiro  1256   0.4 12.8  6721492 1070292   ??  S    Tue11AM  21:39.28 /Users/philippesouzamoraesr
philippesouzamoraesribeiro  3123   0.4  1.9  3664456 157668   ??  S    11:56AM   0:11.63 /Applications/Google Chrome
philippesouzamoraesribeiro   397   0.3  0.1  2581260   9956   ??  S    Mon06PM   0:08.91 /System/Library/CoreService
philippesouzamoraesribeiro   496   0.3  0.1  2720136   5880   ??  S    Mon06PM   5:33.28 /Applications/Spotify.app/C
philippesouzamoraesribeiro   400   0.1  3.3  3118676 275076   ??  S    Mon06PM   0:34.41 /System/Library/CoreService
philippesouzamoraesribeiro  3075   0.1  2.0  3696776 166904   ??  U    11:47AM   2:12.60 /Applications/Google Chrome
philippesouzamoraesribeiro   396   0.1  0.1  2823092   8552   ??  S    Mon06PM   3:06.29 /Applications/Spotify.app/C
philippesouzamoraesribeiro  3254   0.1  2.2  3478388 188672   ??  S    12:52PM   0:14.60 /Applications/Google Chrome
root              2724   0.0  0.1  2535724   5892   ??  Ss    9:35AM   0:01.50 /usr/sbin/ocspd
_netbios          2684   0.0  0.0  2473112    924   ??  SNs   2:00AM   0:00.04 /usr/sbin/netbiosd
philippesouzamoraesribeiro  2534   0.0  0.1  2626504   6744   ??  S     8:51PM   0:01.47 /Applications/Preview.app/C
philippesouzamoraesribeiro  2413   0.0  1.5  3438400 126652   ??  S     7:59PM   0:57.72 /Applications/Google Chrome
philippesouzamoraesribeiro  2412   0.0  0.5  3335680  45800   ??  S     7:59PM   0:39.65 /Applications/Google Chrome
philippesouzamoraesribeiro  2411   0.0  0.2  3277660  16464   ??  S     7:59PM   0:00.88 /Applications/Google Chrome
philippesouzamoraesribeiro  2410   0.0  0.1  3272772  12036   ??  S     7:59PM   0:00.78 /Applications/Google Chrome
philippesouzamoraesribeiro  2409   0.0  2.5  3615164 209556   ??  S     7:59PM   3:15.96 /Applications/Google Chrome
philippesouzamoraesribeiro  2408   0.0  0.3  3318912  26752   ??  S     7:59PM   0:04.20 /Applications/Google Chrome
philippesouzamoraesribeiro  2406   0.0  0.3  3297980  24596   ??  S     7:59PM   0:01.39 /Applications/Google Chrome
philippesouzamoraesribeiro  2402   0.0  1.4  3513224 121604   ??  S     7:59PM   1:12.50 /Applications/Google Chrome
philippesouzamoraesribeiro  2401   0.0  0.1  2504728  11680   ??  Ss    7:59PM   0:45.46 /System/Library/Frameworks/
philippesouzamoraesribeiro  2400   0.0  1.2  3299460 100328   ??  S     7:59PM  72:16.09 /Applications/Google Chrome
philippesouzamoraesribeiro  2399   0.0  0.0  2499532   3804   ??  S     7:59PM   0:02.66 /Applications/Google Chrome
philippesouzamoraesribeiro  2316   0.0  0.5  3877072  45528   ??  S     7:11PM   1:14.91 /Applications/WhatsApp.app/
philippesouzamoraesribeiro  2315   0.0  0.1  2799056   4860   ??  S     7:11PM   0:12.19 /Applications/WhatsApp.app/
philippesouzamoraesribeiro  2314   0.0  0.0  2472872    540   ??  S     7:11PM   0:00.02 /Applications/WhatsApp.app/
philippesouzamoraesribeiro  2300   0.0  0.0  2496720    248   ??  S     7:02PM   0:00.02 /System/Library/PrivateFram
philippesouzamoraesribeiro  1977   0.0  0.0  2565400   1244   ??  Ss    1:56PM   0:00.09 /Library/Frameworks/iTunesL
philippesouzamoraesribeiro  1972   0.0  0.1  2580332   5676   ??  Ss    1:56PM   0:00.47 /System/Library/Frameworks/
philippesouzamoraesribeiro  1968   0.0  0.0  2471488    192   ??  Ss    1:56PM   0:00.01 /System/Library/Frameworks/
philippesouzamoraesribeiro  1963   0.0  0.2  2808104  20652   ??  S     1:56PM   0:14.36 /Applications/Photos.app/Co
philippesouzamoraesribeiro  1960   0.0  0.0  2545708   3816   ??  S     1:56PM   0:02.18 /System/Library/Image Captu
philippesouzamoraesribeiro  1900   0.0  0.0  2508192   1388   ??  Ss   Wed12PM   0:00.28 /System/Library/PrivateFram
philippesouzamoraesribeiro  1856   0.0  0.0  2509700    988   ??  S    Wed12PM   0:00.53 /System/Library/Frameworks/
philippesouzamoraesribeiro  1819   0.0  0.0  2522140   3224   ??  S    Wed12PM   0:18.87 /System/Library/PrivateFram
philippesouzamoraesribeiro  1818   0.0  0.0  2473572    280   ??  Ss   Wed12PM   0:00.04 /System/Library/PrivateFram
root              1614   0.0  0.0  2471604    120   ??  Us   Wed11AM   0:00.01 /usr/libexec/applessdstatis
philippesouzamoraesribeiro  1605   0.0  0.1  2528524   5376   ??  S    Wed11AM   0:00.49 /System/Library/PrivateFram
root              1603   0.0  0.0  2471868    360   ??  Ss   Wed11AM   0:00.03 /usr/libexec/syspolicyd
philippesouzamoraesribeiro  1503   0.0  0.0  2470976    120   ??  S    Tue12PM   0:00.01 /System/Library/Frameworks/
philippesouzamoraesribeiro  1420   0.0  0.0  2502796   2000   ??  S    Tue11AM   0:01.05 /System/Library/PrivateFram
philippesouzamoraesribeiro  1357   0.0  0.0  2474536   1168   ??  S    Tue11AM   0:00.23 /usr/bin/ssh-agent -l
philippesouzamoraesribeiro  1262   0.0  0.0  2463084   2100 s000  S    Tue11AM   0:00.37 -bash
root              1261   0.0  0.0  2471496    188   ??  Ss   Tue11AM   0:00.02 /System/Library/Frameworks/
root              1260   0.0  0.0  2471532    144 s000  Us   Tue11AM   0:00.09 login -pf philippesouzamora
philippesouzamoraesribeiro  1230   0.0  0.0  2472672    256   ??  S    Tue11AM   0:00.03 /usr/libexec/USBAgent
philippesouzamoraesribeiro  1194   0.0  0.0  2499940   1732   ??  S    Tue09AM   0:00.27 /System/Library/PrivateFram
philippesouzamoraesribeiro  1193   0.0  0.1  2547196   8032   ??  Ss   Tue09AM   0:14.87 /System/Library/Frameworks/
philippesouzamoraesribeiro  1188   0.0  0.0  2498068   1448   ??  S    Tue09AM   0:00.07 /System/Library/PrivateFram
philippesouzamoraesribeiro  1184   0.0  0.0  2471580    236   ??  S    Tue09AM   0:00.04 /System/Library/Frameworks/
philippesouzamoraesribeiro   880   0.0  0.0  2497176   1176   ??  Ss   Tue01AM   0:00.06 /System/Library/Frameworks/
philippesouzamoraesribeiro   878   0.0  0.0  2471240    152   ??  S    Tue01AM   0:00.02 /System/Library/PrivateFram
philippesouzamoraesribeiro   877   0.0  0.0  2497080    312   ??  S    Tue01AM   0:00.06 /System/Library/PrivateFram
philippesouzamoraesribeiro   876   0.0  0.0  2500172   3892   ??  S    Tue01AM   0:00.57 /System/Library/PrivateFram
philippesouzamoraesribeiro   829   0.0  0.0  2506432   1324   ??  Us   Mon11PM   0:00.17 /System/Library/PrivateFram
philippesouzamoraesribeiro   828   0.0  0.0  2514268   4008   ??  Ss   Mon11PM   0:00.47 /System/Library/PrivateFram
philippesouzamoraesribeiro   825   0.0  0.1  2513020   5240   ??  Ss   Mon11PM   0:00.30 /System/Library/PrivateFram
philippesouzamoraesribeiro   747   0.0  0.0  2471496    220   ??  S    Mon08PM   0:00.02 /System/Library/PrivateFram
root               732   0.0  0.0  2517528    264   ??  Ss   Mon08PM   0:00.50 /System/Library/PrivateFram
_assetcache        728   0.0  0.0  2472752    168   ??  U    Mon08PM   0:00.02 /System/Library/PrivateFram
_assetcache        727   0.0  0.0  2500608   1976   ??  Ss   Mon08PM   0:00.84 /System/Library/PrivateFram
_softwareupdate    726   0.0  0.0  2499720   1628   ??  Ss   Mon08PM   0:00.82 /System/Library/CoreService
root               715   0.0  0.0  2499044   2168   ??  Ss   Mon08PM   0:00.12 /usr/libexec/diskmanagement
philippesouzamoraesribeiro   660   0.0  0.0  2501576   1800   ??  S    Mon06PM   0:00.18 /System/Library/Frameworks/
philippesouzamoraesribeiro   658   0.0  0.1  2639924   5544   ??  S    Mon06PM   0:01.09 /System/Library/Services/Ap
philippesouzamoraesribeiro   642   0.0  0.0  2497128   1500   ??  S    Mon06PM   0:00.24 /System/Library/PrivateFram
philippesouzamoraesribeiro   641   0.0  0.0  2523820   2288   ??  S    Mon06PM   0:00.21 /System/Library/CoreService
philippesouzamoraesribeiro   618   0.0  0.0  2500440   1636   ??  S    Mon06PM   0:01.84 /System/Library/PrivateFram
root               609   0.0  0.0  2472468    124   ??  S    Mon06PM   0:00.01 /System/Library/Frameworks/
root               608   0.0  0.0  2471516   1116   ??  Ss   Mon06PM   0:05.28 sysmond
philippesouzamoraesribeiro   600   0.0  0.0  2531692   3956   ??  S    Mon06PM   0:00.35 /System/Library/LoginPlugin
philippesouzamoraesribeiro   585   0.0  0.0   620156     12   ??  S    Mon06PM   0:00.01 /Applications/Steam.app/Con
philippesouzamoraesribeiro   582   0.0  0.0  2500616   3056   ??  S    Mon06PM   0:00.41 /System/Library/PrivateFram
root               580   0.0  0.0  2473032   1084   ??  Ss   Mon06PM   0:13.71 /usr/libexec/systemstatsd
philippesouzamoraesribeiro   569   0.0  0.0  2497424    268   ??  S    Mon06PM   0:00.03 /System/Library/PrivateFram
philippesouzamoraesribeiro   566   0.0  0.0  2502380   3688   ??  S    Mon06PM   0:00.27 /System/Library/PrivateFram
philippesouzamoraesribeiro   565   0.0  0.0  2497640   1004   ??  Ss   Mon06PM   0:00.04 /System/Library/Frameworks/
philippesouzamoraesribeiro   560   0.0  0.0  2471496    188   ??  Ss   Mon06PM   0:00.02 /System/Library/Frameworks/
root               558   0.0  0.0  2462764    120   ??  Ss   Mon06PM   0:00.01 /System/Library/Frameworks/
_nsurlstoraged     557   0.0  0.0  2497244   2172   ??  Ss   Mon06PM   0:00.09 /usr/libexec/nsurlstoraged
philippesouzamoraesribeiro   554   0.0  0.0  2505804    432   ??  Ss   Mon06PM   0:00.04 /System/Library/PrivateFram
root               553   0.0  0.0  2498340   1660   ??  Ss   Mon06PM   0:01.64 /usr/sbin/WirelessRadioMana
philippesouzamoraesribeiro   546   0.0  0.0  2499824   1824   ??  Ss   Mon06PM   0:00.57 /System/Library/PrivateFram
philippesouzamoraesribeiro   528   0.0  0.1  2514020   5204   ??  Ss   Mon06PM   0:02.76 /System/Library/PrivateFram
philippesouzamoraesribeiro   525   0.0  0.0  2500496   1184   ??  S    Mon06PM   0:00.07 /System/Library/PrivateFram
philippesouzamoraesribeiro   521   0.0  0.0  2526700   2724   ??  U    Mon06PM   0:00.23 /System/Library/PrivateFram
philippesouzamoraesribeiro   510   0.0  0.0  2497824    264   ??  Ss   Mon06PM   0:00.03 /System/Library/Frameworks/
philippesouzamoraesribeiro   508   0.0  0.0  2496808    492   ??  S    Mon06PM   0:00.10 /System/Library/PrivateFram
philippesouzamoraesribeiro   507   0.0  0.0  2474280    864   ??  S    Mon06PM   0:03.31 /Users/philippesouzamoraesr
root               503   0.0  0.0  2470988    908   ??  Ss   Mon06PM   0:00.03 /System/Library/PrivateFram
philippesouzamoraesribeiro   501   0.0  0.0  2498376   1124   ??  U    Mon06PM   0:00.05 /System/Library/PrivateFram
philippesouzamoraesribeiro   499   0.0  0.0  2526876   3384   ??  S    Mon06PM   0:00.28 /System/Library/CoreService
root               497   0.0  0.0  2471432    984   ??  Ss   Mon06PM   0:00.08 /System/Library/CoreService
philippesouzamoraesribeiro   495   0.0  0.0  2502424    836   ??  S    Mon06PM   0:00.06 /System/Library/CoreService
root               494   0.0  0.0  2547600   2120   ??  Ss   Mon06PM   0:05.37 /usr/sbin/spindump
philippesouzamoraesribeiro   490   0.0  0.0  2496660    264   ??  Ss   Mon06PM   0:00.02 /System/Library/CoreService
philippesouzamoraesribeiro   486   0.0  0.1  2517912   6824   ??  S    Mon06PM   0:00.41 /System/Library/PrivateFram
philippesouzamoraesribeiro   485   0.0  0.1  2535608   8500   ??  S    Mon06PM   0:59.88 /System/Library/PrivateFram
philippesouzamoraesribeiro   483   0.0  0.0  2509352   1456   ??  Ss   Mon06PM   0:00.08 /System/Library/CoreService
philippesouzamoraesribeiro   479   0.0  0.0  2502592   3208   ??  S    Mon06PM   0:00.51 /usr/libexec/fmfd
philippesouzamoraesribeiro   478   0.0  0.0  2501412   1928   ??  S    Mon06PM   0:00.16 /System/Library/PrivateFram
philippesouzamoraesribeiro   477   0.0  0.0  2497692    976   ??  S    Mon06PM   0:20.86 /usr/libexec/SafariCloudHis
philippesouzamoraesribeiro   475   0.0  0.1  2514792   4744   ??  S    Mon06PM   0:02.13 /System/Library/PrivateFram
philippesouzamoraesribeiro   474   0.0  0.1  2500396   5128   ??  S    Mon06PM   0:00.90 /System/Library/CoreService
philippesouzamoraesribeiro   472   0.0  0.0  2508700   2132   ??  S    Mon06PM   0:00.11 /Applications/iTunes.app/Co
root               471   0.0  0.0  2496944   1664   ??  Ss   Mon06PM   0:00.13 /usr/libexec/taskgated -s
philippesouzamoraesribeiro   469   0.0  0.0  2501920    252   ??  S    Mon06PM   0:00.11 /System/Library/CoreService
philippesouzamoraesribeiro   467   0.0  0.0   695992   1708   ??  S    Mon06PM   0:00.33 /Applications/Amazon Music.
philippesouzamoraesribeiro   465   0.0  0.0  2498264   3100   ??  S    Mon06PM   0:00.96 /System/Library/CoreService
philippesouzamoraesribeiro   464   0.0  0.0  2524724   2848   ??  S    Mon06PM   0:00.84 /System/Library/CoreService
philippesouzamoraesribeiro   461   0.0  0.0  2497916   1504   ??  S    Mon06PM   0:06.26 /System/Library/CoreService
philippesouzamoraesribeiro   460   0.0  0.0  2523848   2220   ??  S    Mon06PM   0:00.38 /System/Library/CoreService
philippesouzamoraesribeiro   457   0.0  0.0  2531548   2356   ??  S    Mon06PM   0:00.32 com.apple.photostream-agent
philippesouzamoraesribeiro   456   0.0  0.0  2496780    344   ??  S    Mon06PM   0:00.04 /System/Library/PrivateFram
philippesouzamoraesribeiro   453   0.0  0.0  2502468   2092   ??  S    Mon06PM   0:00.79 /System/Library/CoreService
philippesouzamoraesribeiro   452   0.0  0.0  2502816   1888   ??  S    Mon06PM   0:00.19 /System/Library/Image Captu
philippesouzamoraesribeiro   450   0.0  0.1  2666672   7432   ??  S    Mon06PM   0:03.09 /System/Library/CoreService
philippesouzamoraesribeiro   447   0.0  0.0  2523864   1784   ??  S    Mon06PM   0:00.19 /System/Library/CoreService
philippesouzamoraesribeiro   446   0.0  1.6  3865264 132924   ??  S    Mon06PM   2:08.90 /usr/local/opt/mongodb/bin/
philippesouzamoraesribeiro   444   0.0  0.0  2496768    596   ??  S    Mon06PM   0:00.06 /System/Library/CoreService
philippesouzamoraesribeiro   442   0.0  0.0  2476816    348   ??  S    Mon06PM   0:00.04 /usr/libexec/spindump_agent
philippesouzamoraesribeiro   440   0.0  0.0  2523820   1648   ??  S    Mon06PM   0:00.16 /System/Library/CoreService
philippesouzamoraesribeiro   439   0.0  0.1  2528228  11132   ??  Ss   Mon06PM   0:01.53 /System/Library/PrivateFram
philippesouzamoraesribeiro   438   0.0  0.0  2501304    320   ??  S    Mon06PM   0:00.09 /System/Library/PrivateFram
philippesouzamoraesribeiro   437   0.0  0.1  2549672   5404   ??  S    Mon06PM   0:13.56 /System/Library/PrivateFram
philippesouzamoraesribeiro   436   0.0  0.1  2504704   4552   ??  S    Mon06PM   0:02.08 /System/Library/PrivateFram
root               435   0.0  0.0  2497472   1688   ??  Ss   Mon06PM   0:00.05 /System/Library/CoreService
root               434   0.0  0.0  2471256   1240   ??  Ss   Mon06PM   0:00.04 /System/Library/PrivateFram
root               433   0.0  0.0  2473088   2272   ??  Ss   Mon06PM   0:00.16 /System/Library/PrivateFram
philippesouzamoraesribeiro   432   0.0  0.0  2501808    284   ??  Ss   Mon06PM   0:00.09 /System/Library/PrivateFram
philippesouzamoraesribeiro   431   0.0  0.1  2585340   8588   ??  S    Mon06PM   0:03.77 /System/Library/PrivateFram
philippesouzamoraesribeiro   430   0.0  0.0  2504688   3140   ??  S    Mon06PM   0:02.97 /System/Library/PrivateFram
root               429   0.0  0.0  2477188   1956   ??  Ss   Mon06PM   0:00.24 /usr/sbin/filecoordinationd
philippesouzamoraesribeiro   428   0.0  0.0  2525016   3932   ??  Ss   Mon06PM   0:00.99 /System/Library/CoreService
philippesouzamoraesribeiro   427   0.0  0.0  2498248   1828   ??  Ss   Mon06PM   0:02.23 /System/Library/PrivateFram
philippesouzamoraesribeiro   426   0.0  0.0  2504504   3372   ??  S    Mon06PM   0:16.68 /System/Library/PrivateFram
philippesouzamoraesribeiro   425   0.0  0.1  2508312   8592   ??  S    Mon06PM   0:02.01 /System/Library/PrivateFram
philippesouzamoraesribeiro   424   0.0  0.1  2537704   4284   ??  S    Mon06PM   0:01.84 /System/Library/PrivateFram
philippesouzamoraesribeiro   423   0.0  0.0  2472468    444   ??  S    Mon06PM   0:01.26 /System/Library/Frameworks/
philippesouzamoraesribeiro   422   0.0  0.0  2504952    268   ??  S    Mon06PM   0:00.11 /System/Library/CoreService
philippesouzamoraesribeiro   421   0.0  0.0  2506116   3844   ??  S    Mon06PM   0:03.55 /System/Library/PrivateFram
philippesouzamoraesribeiro   420   0.0  0.0  2504944   3248   ??  S    Mon06PM   0:02.13 /System/Library/PrivateFram
philippesouzamoraesribeiro   419   0.0  0.1  2506340   6620   ??  S    Mon06PM   0:09.57 /System/Library/PrivateFram
philippesouzamoraesribeiro   418   0.0  0.0  2505388   2268   ??  S    Mon06PM   0:00.44 /System/Library/PrivateFram
philippesouzamoraesribeiro   417   0.0  0.0  2497216   3056   ??  U    Mon06PM   0:01.73 /System/Library/Frameworks/
philippesouzamoraesribeiro   416   0.0  0.1  2537244   8096   ??  S    Mon06PM   0:02.97 /System/Library/PrivateFram
philippesouzamoraesribeiro   415   0.0  0.0  2501944   2512   ??  S    Mon06PM   0:00.82 /usr/libexec/pkd
philippesouzamoraesribeiro   414   0.0  0.1  2522936  10660   ??  S    Mon06PM   0:23.85 /usr/libexec/sharingd
philippesouzamoraesribeiro   413   0.0  0.0  2472276    832   ??  S    Mon06PM   0:00.35 /System/Library/Frameworks/
philippesouzamoraesribeiro   411   0.0  0.0  2505720   3584   ??  S    Mon06PM   0:03.30 /usr/libexec/nsurlstoraged
philippesouzamoraesribeiro   409   0.0  0.1  2531456   5472   ??  S    Mon06PM   0:21.74 /System/Library/Frameworks/
philippesouzamoraesribeiro   406   0.0  0.1  2566924   8820   ??  S    Mon06PM   0:04.26 /System/Library/CoreService
philippesouzamoraesribeiro   405   0.0  0.2  2511876  13916   ??  Ss   Mon06PM   0:29.38 /System/Library/PrivateFram
philippesouzamoraesribeiro   402   0.0  0.0  2503988   2756   ??  S    Mon06PM   0:03.49 /System/Library/PrivateFram
philippesouzamoraesribeiro   401   0.0  0.0  2445232    148   ??  S    Mon06PM   0:00.01 /usr/sbin/pboard
philippesouzamoraesribeiro   399   0.0  0.1  2566988   8944   ??  S    Mon06PM   0:22.31 /System/Library/CoreService
philippesouzamoraesribeiro   394   0.0  0.0  2500136   2912   ??  S    Mon06PM   0:05.63 /usr/libexec/secd
philippesouzamoraesribeiro   393   0.0  0.4  3792800  34920   ??  S    Mon06PM   0:14.65 /Applications/iTunes.app/Co
philippesouzamoraesribeiro   391   0.0  0.1  2507800   5288   ??  S    Mon06PM   0:09.63 /System/Library/PrivateFram
philippesouzamoraesribeiro   390   0.0  0.2  3930532  16408   ??  S    Mon06PM   0:12.87 /Applications/Messages.app/
philippesouzamoraesribeiro   388   0.0  0.1  2536020  12180   ??  S    Mon06PM   1:57.95 /System/Library/PrivateFram
philippesouzamoraesribeiro   387   0.0  0.1  2558928   8960   ??  S    Mon06PM   0:03.71 /System/Library/CoreService
philippesouzamoraesribeiro   386   0.0  0.5  3927852  40664   ??  S    Mon06PM   0:46.60 /Applications/WhatsApp.app/
philippesouzamoraesribeiro   385   0.0  0.1  2535896  10048   ??  U    Mon06PM   1:11.98 /System/Library/Frameworks/
philippesouzamoraesribeiro   384   0.0  0.0  2503040   1060   ??  S    Mon06PM   0:00.17 /usr/libexec/swcd
philippesouzamoraesribeiro   383   0.0  0.0  2506476   4192   ??  S    Mon06PM   0:02.81 /System/Library/PrivateFram
philippesouzamoraesribeiro   382   0.0  0.0  2498360   3692   ??  S    Mon06PM   0:00.46 /System/Library/CoreService
root               381   0.0  0.0  2501160   1516   ??  Ss   Mon06PM   0:01.12 /usr/libexec/amfid
philippesouzamoraesribeiro   379   0.0  0.0  2498624   2764   ??  S    Mon06PM   0:00.83 /usr/libexec/secinitd
philippesouzamoraesribeiro   378   0.0  0.0  2507332   3524   ??  S    Mon06PM   1:01.67 /usr/libexec/nsurlsessiond
philippesouzamoraesribeiro   377   0.0  0.2  2524456  19296   ??  S    Mon06PM   1:27.98 /System/Library/PrivateFram
philippesouzamoraesribeiro   376   0.0  0.0  2498664   3272   ??  S    Mon06PM   0:01.39 /usr/sbin/usernoted
philippesouzamoraesribeiro   374   0.0  0.0  2502884   1288   ??  S    Mon06PM   0:00.67 /usr/libexec/lsd
philippesouzamoraesribeiro   373   0.0  0.1  2533900   5388   ??  S    Mon06PM   0:05.78 /System/Library/Frameworks/
philippesouzamoraesribeiro   371   0.0  0.0  2472380   2872   ??  S    Mon06PM   1:10.36 /usr/sbin/distnoted agent
philippesouzamoraesribeiro   369   0.0  0.1  2503992   4604   ??  S    Mon06PM   0:11.23 /usr/libexec/UserEventAgent
root               368   0.0  0.0  2498968   2532   ??  Ss   Mon06PM   0:38.62 /usr/libexec/securityd_serv
root               364   0.0  0.0  2472596    804   ??  Ss   Mon06PM   0:00.14 /System/Library/PrivateFram
_spotlight         363   0.0  0.0  2507840   1016   ??  S    Mon06PM   0:44.21 /System/Library/Frameworks/
philippesouzamoraesribeiro   362   0.0  0.0  2501764   1272   ??  S    Mon06PM   0:02.54 /System/Library/Frameworks/
philippesouzamoraesribeiro   361   0.0  0.0  2478548   3312   ??  S    Mon06PM   0:06.73 /usr/sbin/cfprefsd agent
root               354   0.0  0.0  2504892   2136   ??  Ss   Mon06PM   0:00.24 /System/Library/PrivateFram
_softwareupdate    353   0.0  1.2  4036104 103700   ??  Ss   Mon06PM   1:01.14 /System/Library/CoreService
root               316   0.0  0.0  2498072    496   ??  Ss   Mon06PM   0:00.04 /System/Library/PrivateFram
root               305   0.0  0.0  2498704    316   ??  Ss   Mon06PM   0:00.04 /System/Library/PrivateFram
root               290   0.0  0.0  2497104   2128   ??  Ss   Mon06PM   0:00.09 /System/Library/CoreService
root               276   0.0  0.0  2471284    124   ??  SNs  Mon06PM   0:00.00 /usr/libexec/periodic-wrapp
root               258   0.0  0.0  2471284    184   ??  SNs  Mon06PM   0:00.01 /usr/libexec/periodic-wrapp
root               256   0.0  0.0  2471524    420   ??  Ss   Mon06PM   0:00.03 /System/Library/PrivateFram
root               255   0.0  0.0  2498040    316   ??  Ss   Mon06PM   0:00.03 /System/Library/PrivateFram
root               253   0.0  0.0  2500752   1276   ??  Ss   Mon06PM   0:00.17 /usr/sbin/systemsoundserver
root               248   0.0  0.0  2471816    236   ??  Ss   Mon06PM   0:00.94 /usr/libexec/watchdogd
root               227   0.0  0.0  2522240    728   ??  Ss   Mon06PM   0:00.12 /System/Library/Frameworks/
root               226   0.0  0.0  2497868    940   ??  Ss   Mon06PM   0:00.76 /System/Library/PrivateFram
root               225   0.0  0.6  3966436  49784   ??  Ss   Mon06PM   2:01.86 /System/Library/Frameworks/
root               223   0.0  0.0  2499172   1404   ??  Ss   Mon06PM   0:00.27 /System/Library/PrivateFram
_networkd          222   0.0  0.0  2507024   3820   ??  Ss   Mon06PM   0:19.48 /usr/libexec/symptomsd
root               214   0.0  0.0  2506592   1264   ??  Ss   Mon06PM   0:00.09 /System/Library/Frameworks/
root               213   0.0  0.0  2496684    248   ??  Ss   Mon06PM   0:00.02 /usr/libexec/dpd
root               212   0.0  0.0  2471000    268   ??  Ss   Mon06PM   0:00.02 /System/Library/CryptoToken
root               211   0.0  0.0  2497980    632   ??  Ss   Mon06PM   0:00.16 /usr/libexec/usbd
root               209   0.0  0.0  2500332   1592   ??  Ss   Mon06PM   0:00.29 /usr/libexec/nehelper
root               208   0.0  0.0  2473404    596   ??  Ss   Mon06PM   0:04.50 /usr/sbin/ntpd -c /private/
_nsurlsessiond     207   0.0  0.0  2504512   1564   ??  Ss   Mon06PM   0:00.86 /usr/libexec/nsurlsessiond 
root               201   0.0  0.0  2504868   1944   ??  Ss   Mon06PM   0:00.95 /usr/libexec/findmydeviced
root               196   0.0  0.0  2503092   1492   ??  Ss   Mon06PM   0:01.42 /usr/libexec/lsd runAsRoot
root               185   0.0  0.0  2470972   1392   ??  Ss   Mon06PM   0:00.04 /System/Library/CoreService
root               184   0.0  0.0  2498428    248   ??  Ss   Mon06PM   0:00.04 /usr/libexec/secinitd
root               183   0.0  0.0  2471504    192   ??  Ss   Mon06PM   0:00.01 /System/Library/Frameworks/
root               179   0.0  0.0  2472468   1360   ??  Ss   Mon06PM   0:00.69 /System/Library/Frameworks/
root               176   0.0  0.0  2471500    280   ??  Ss   Mon06PM   0:00.04 /usr/libexec/networkd_privi
root               175   0.0  0.0  2471520    192   ??  Ss   Mon06PM   0:00.02 /System/Library/Frameworks/
_coreaudiod        170   0.0  0.0  2497040    212   ??  Ss   Mon06PM   0:00.04 /System/Library/Frameworks/
_networkd          167   0.0  0.0  2471556   2496   ??  Ss   Mon06PM   0:02.93 /usr/libexec/networkd
root               165   0.0  0.0  2497512   1184   ??  Ss   Mon06PM   0:00.55 /System/Library/PrivateFram
root               162   0.0  0.0  2473728    620   ??  Ss   Mon06PM   0:00.48 /System/Library/PrivateFram
_coreaudiod        160   0.0  0.0  2499920   3268   ??  Ss   Mon06PM   2:24.79 /usr/sbin/coreaudiod
root               135   0.0  0.0  2506360   3156   ??  Ss   Mon06PM   0:04.34 /usr/libexec/sandboxd
root               131   0.0  0.0  2497620    888   ??  Ss   Mon06PM   0:00.41 /usr/libexec/diagnosticd
root               130   0.0  0.0  2471528   1324   ??  Ss   Mon06PM   0:00.79 aslmanager
root               129   0.0  0.0  2471852   3012   ??  Ss   Mon06PM   0:08.99 /usr/sbin/cfprefsd daemon
root               127   0.0  0.0  2500360   2780   ??  Ss   Mon06PM   0:00.37 /System/Library/Frameworks/
root               107   0.0  0.0  2503592   3248   ??  Ss   Mon06PM   0:02.13 /System/Library/CoreService
_distnote          102   0.0  0.0  2470808    508   ??  Ss   Mon06PM   0:01.34 /usr/sbin/distnoted daemon
root               100   0.0  0.0  2471872   1672   ??  Ss   Mon06PM   0:07.23 /usr/sbin/notifyd
root                99   0.0  0.0  2473248   1744   ??  Ss   Mon06PM   0:05.44 /usr/libexec/AirPlayXPCHelp
root                98   0.0  0.0  2472164    864   ??  Ss   Mon06PM   0:00.38 /usr/libexec/hidd
root                95   0.0  0.0  2471312    352   ??  Ss   Mon06PM   0:00.01 /usr/sbin/KernelEventAgent
root                94   0.0  0.0  2470996    380   ??  Ss   Mon06PM   0:00.03 /System/Library/CoreService
philippesouzamoraesribeiro    93   0.0  0.2  2560780  13820   ??  Ss   Mon06PM   0:15.43 /System/Library/CoreService
root                92   0.0  0.0  2499208   2116   ??  Ss   Mon06PM   0:00.26 /System/Library/PrivateFram
_mdnsresponder      90   0.0  0.0  2500528   2424   ??  Ss   Mon06PM   0:06.20 /usr/sbin/mDNSResponder
root                85   0.0  0.0  2471480    408   ??  Ss   Mon06PM   0:00.02 autofsd
root                84   0.0  0.0  2498104   2980   ??  Ss   Mon06PM   0:45.05 /usr/sbin/blued
_locationd          81   0.0  0.1  2511464   8036   ??  Ss   Mon06PM   0:09.26 /usr/libexec/locationd
root                79   0.0  0.0  2500884   3732   ??  Ss   Mon06PM   0:17.13 /usr/sbin/securityd -i
_usbmuxd            78   0.0  0.0  2473624   1240   ??  Ss   Mon06PM   0:04.06 /System/Library/PrivateFram
root                77   0.0  0.1  2502296   6704   ??  Ss   Mon06PM   0:22.68 /System/Library/CoreService
root                76   0.0  0.1  2503388   6092   ??  Ss   Mon06PM   0:08.96 /System/Library/PrivateFram
root                74   0.0  0.0  2498688   1704   ??  Ss   Mon06PM   0:12.26 /usr/sbin/wirelessproxd
root                73   0.0  0.1  2515960   6400   ??  Us   Mon06PM   0:07.65 /usr/libexec/opendirectoryd
root                71   0.0  0.0  2472572    124   ??  Ss   Mon06PM   0:00.03 /usr/libexec/wdhelper
root                70   0.0  0.1  2507616   6128   ??  Ss   Mon06PM   0:12.32 /usr/libexec/coreduetd
root                68   0.0  0.0  2496564   2380   ??  Ss   Mon06PM   0:00.53 /usr/libexec/diskarbitratio
root                67   0.0  0.0  2472656    196   ??  Ss   Mon06PM   0:00.02 /System/Library/CoreService
_iconservices       66   0.0  0.0  2472656    196   ??  Ss   Mon06PM   0:00.03 /System/Library/CoreService
root                62   0.0  0.3  2660516  25492   ??  Ss   Mon06PM   2:37.98 /System/Library/Frameworks/
root                61   0.0  0.0  2498648   1728   ??  SNs  Mon06PM   0:00.40 /usr/libexec/warmd
root                59   0.0  0.1  2511412   6216   ??  Ss   Mon06PM   0:17.49 /usr/libexec/airportd
root                53   0.0  0.0  2496684   1560   ??  Ss   Mon06PM   0:02.74 /System/Library/CoreService
root                52   0.0  0.0  2502628   3020   ??  Ss   Mon06PM   0:04.13 /usr/libexec/configd
_appleevents        51   0.0  0.0  2498604   1784   ??  Ss   Mon06PM   0:00.30 /System/Library/CoreService
root                47   0.0  0.0  2475804   2984   ??  Ss   Mon06PM   0:20.89 /System/Library/Frameworks/
root                46   0.0  0.0  2506744   3204   ??  Ss   Mon06PM   0:04.45 /usr/libexec/kextd
root                44   0.0  0.0  2474032   1136   ??  Ss   Mon06PM   0:30.31 /usr/sbin/syslogd
root                43   0.0  0.1  2505988   7100   ??  Ss   Mon06PM   0:20.64 /usr/libexec/UserEventAgent
root              3257   0.0  0.0  2435168    980 s000  R+   12:55PM   0:00.00 ps aux
root                 1   0.0  0.1  2494140   8180   ??  Ss   Mon06PM   3:10.22 /sbin/launchd
philippesouzamoraesribeiro  3249   0.0  1.0  3353924  86588   ??  S    12:52PM   0:00.92 /Applications/Google Chrome
philippesouzamoraesribeiro  3240   0.0  0.1  2496996   9088   ??  S    12:47PM   0:00.09 /System/Library/PrivateFram
_spotlight        3235   0.0  0.1  2500952   9652   ??  S    12:45PM   0:00.04 /System/Library/Frameworks/
philippesouzamoraesribeiro  3208   0.0  0.3  2518648  22472   ??  S    12:36PM   0:00.38 /System/Library/Frameworks/
philippesouzamoraesribeiro  3207   0.0  0.2  2514076  20300   ??  S    12:36PM   0:00.23 /System/Library/Frameworks/
philippesouzamoraesribeiro  3206   0.0  0.2  2510816  19572   ??  S    12:36PM   0:00.43 /System/Library/Frameworks/
philippesouzamoraesribeiro  3205   0.0  1.2  4496588 100580   ??  S    12:36PM   0:03.40 /Applications/Google Chrome
philippesouzamoraesribeiro  3201   0.0  0.3  2516840  24328   ??  S    12:36PM   0:00.29 /System/Library/Frameworks/
philippesouzamoraesribeiro  3132   0.0  0.0  2497708   3680   ??  S    11:58AM   0:00.02 /System/Library/Services/Ap
philippesouzamoraesribeiro  3127   0.0  0.4  3661736  34448   ??  S    11:58AM   0:02.06 /Applications/Notes.app/Con
philippesouzamoraesribeiro  3124   0.0  0.8  3380300  69204   ??  S    11:56AM   0:03.10 /Applications/Google Chrome
philippesouzamoraesribeiro  3122   0.0  0.9  3559012  74308   ??  S    11:56AM   0:05.33 /Applications/Google Chrome
philippesouzamoraesribeiro  3118   0.0  0.8  3409952  68624   ??  S    11:55AM   0:06.49 /Applications/Google Chrome
