15:18:11.765151 IP ip-172-31-8-123.ec2.internal.ssh > c-71-198-3-211.hsd1.ca.comcast.net.65304: Flags [P.], seq 2288734425:2288734533, ack 792520363, win 317, options [nop,nop,TS val 114672 ecr 1339586404], length 108
15:18:11.765221 IP ip-172-31-8-123.ec2.internal.ssh > c-71-198-3-211.hsd1.ca.comcast.net.65304: Flags [P.], seq 108:144, ack 1, win 317, options [nop,nop,TS val 114672 ecr 1339586404], length 36
15:18:11.765325 IP ip-172-31-8-123.ec2.internal.ssh > c-71-198-3-211.hsd1.ca.comcast.net.65304: Flags [P.], seq 144:252, ack 1, win 317, options [nop,nop,TS val 114672 ecr 1339586404], length 108
15:18:11.765401 IP ip-172-31-8-123.ec2.internal.ssh > c-71-198-3-211.hsd1.ca.comcast.net.65304: Flags [P.], seq 252:288, ack 1, win 317, options [nop,nop,TS val 114672 ecr 1339586404], length 36
15:18:11.831706 IP c-71-198-3-211.hsd1.ca.comcast.net.65304 > ip-172-31-8-123.ec2.internal.ssh: Flags [.], ack 0, win 4094, options [nop,nop,TS val 1339586487 ecr 114666], length 0
15:18:11.849685 IP c-71-198-3-211.hsd1.ca.comcast.net.65304 > ip-172-31-8-123.ec2.internal.ssh: Flags [.], ack 108, win 4092, options [nop,nop,TS val 1339586512 ecr 114672], length 0
15:18:11.865303 IP c-71-198-3-211.hsd1.ca.comcast.net.65304 > ip-172-31-8-123.ec2.internal.ssh: Flags [.], ack 144, win 4094, options [nop,nop,TS val 1339586514 ecr 114672], length 0
15:18:11.865910 IP c-71-198-3-211.hsd1.ca.comcast.net.65304 > ip-172-31-8-123.ec2.internal.ssh: Flags [.], ack 288, win 4090, options [nop,nop,TS val 1339586514 ecr 114672], length 0
15:18:12.768450 IP ip-172-31-8-123.ec2.internal.44016 > ip-172-31-0-2.ec2.internal.domain: 58889+ PTR? 211.3.198.71.in-addr.arpa. (43)
15:18:12.768883 IP ip-172-31-0-2.ec2.internal.domain > ip-172-31-8-123.ec2.internal.44016: 58889 1/0/0 PTR c-71-198-3-211.hsd1.ca.comcast.net. (91)
15:18:12.769086 IP ip-172-31-8-123.ec2.internal.57185 > ip-172-31-0-2.ec2.internal.domain: 658+ PTR? 123.8.31.172.in-addr.arpa. (43)
15:18:12.769399 IP ip-172-31-0-2.ec2.internal.domain > ip-172-31-8-123.ec2.internal.57185: 658 1/0/0 PTR ip-172-31-8-123.ec2.internal. (85)
15:18:12.881413 IP jump.p.use01.hasservers.com.33769 > ip-172-31-8-123.ec2.internal.http-alt: Flags [S], seq 3087863651, win 14600, options [mss 1460,sackOK,TS val 4040608680 ecr 0,nop,wscale 7], length 0
15:18:12.881439 IP ip-172-31-8-123.ec2.internal.http-alt > jump.p.use01.hasservers.com.33769: Flags [R.], seq 0, ack 3087863652, win 0, length 0
15:18:13.770902 IP ip-172-31-8-123.ec2.internal.44488 > ip-172-31-0-2.ec2.internal.domain: 9854+ PTR? 2.0.31.172.in-addr.arpa. (41)
15:18:13.771939 IP ip-172-31-0-2.ec2.internal.domain > ip-172-31-8-123.ec2.internal.44488: 9854 1/0/0 PTR ip-172-31-0-2.ec2.internal. (81)
15:18:13.772209 IP ip-172-31-8-123.ec2.internal.57178 > ip-172-31-0-2.ec2.internal.domain: 1632+ PTR? 198.28.21.107.in-addr.arpa. (44)
15:18:13.775539 IP ip-172-31-0-2.ec2.internal.domain > ip-172-31-8-123.ec2.internal.57178: 1632 1/0/0 PTR jump.p.use01.hasservers.com. (85)