PID USER      PR  NI    VIRT    RES    SHR S %CPU %MEM     TIME+ COMMAND
 1365 ubuntu    20   0   23556   1400   1056 R  6.5  0.2   0:00.01 top
    1 root      20   0   33500   2892   1512 S  0.0  0.5   0:01.12 init
    2 root      20   0       0      0      0 S  0.0  0.0   0:00.00 kthreadd
    3 root      20   0       0      0      0 S  0.0  0.0   0:00.00 ksoftirqd/0
    4 root      20   0       0      0      0 S  0.0  0.0   0:00.00 kworker/0:0
    5 root       0 -20       0      0      0 S  0.0  0.0   0:00.00 kworker/0:0H
    6 root      20   0       0      0      0 S  0.0  0.0   0:00.00 kworker/u2:0
    7 root      20   0       0      0      0 S  0.0  0.0   0:00.06 rcu_sched
    8 root      20   0       0      0      0 S  0.0  0.0   0:00.03 rcuos/0
    9 root      20   0       0      0      0 S  0.0  0.0   0:00.00 rcu_bh
   10 root      20   0       0      0      0 S  0.0  0.0   0:00.00 rcuob/0
   11 root      rt   0       0      0      0 S  0.0  0.0   0:00.00 migration/0
   12 root      rt   0       0      0      0 S  0.0  0.0   0:00.00 watchdog/0
   13 root       0 -20       0      0      0 S  0.0  0.0   0:00.00 khelper
   14 root      20   0       0      0      0 S  0.0  0.0   0:00.00 kdevtmpfs
   15 root       0 -20       0      0      0 S  0.0  0.0   0:00.00 netns
   16 root      20   0       0      0      0 S  0.0  0.0   0:00.00 xenwatch
   17 root      20   0       0      0      0 S  0.0  0.0   0:01.00 xenbus
   18 root       0 -20       0      0      0 S  0.0  0.0   0:00.00 writeback
   19 root       0 -20       0      0      0 S  0.0  0.0   0:00.00 kintegrityd
   20 root       0 -20       0      0      0 S  0.0  0.0   0:00.00 bioset
   21 root       0 -20       0      0      0 S  0.0  0.0   0:00.00 kworker/u3:0
   22 root       0 -20       0      0      0 S  0.0  0.0   0:00.00 kblockd
   23 root       0 -20       0      0      0 S  0.0  0.0   0:00.00 ata_sff
   24 root      20   0       0      0      0 S  0.0  0.0   0:00.00 khubd
   25 root       0 -20       0      0      0 S  0.0  0.0   0:00.00 md
   26 root       0 -20       0      0      0 S  0.0  0.0   0:00.00 devfreq_wq
   27 root      20   0       0      0      0 S  0.0  0.0   0:00.01 kworker/0:1
   29 root      20   0       0      0      0 S  0.0  0.0   0:00.00 khungtaskd
   30 root      20   0       0      0      0 S  0.0  0.0   0:00.00 kswapd0
   31 root      25   5       0      0      0 S  0.0  0.0   0:00.00 ksmd
   32 root      20   0       0      0      0 S  0.0  0.0   0:00.00 fsnotify_ma+
   33 root      20   0       0      0      0 S  0.0  0.0   0:00.00 ecryptfs-kt+
   34 root       0 -20       0      0      0 S  0.0  0.0   0:00.00 crypto
   46 root       0 -20       0      0      0 S  0.0  0.0   0:00.00 kthrotld
   47 root      20   0       0      0      0 S  0.0  0.0   0:00.00 kworker/u2:1
   48 root      20   0       0      0      0 S  0.0  0.0   0:00.00 khvcd
   67 root       0 -20       0      0      0 S  0.0  0.0   0:00.00 deferwq
   68 root       0 -20       0      0      0 S  0.0  0.0   0:00.00 charger_man+
   168 root      20   0       0      0      0 S  0.0  0.0   0:00.00 jbd2/xvda1-8
  169 root       0 -20       0      0      0 S  0.0  0.0   0:00.00 ext4-rsv-co+
  414 root      20   0   19472    652    464 S  0.0  0.1   0:00.14 upstart-ude+
  419 root      20   0   49588   1484    992 S  0.0  0.2   0:00.04 systemd-ude+
  531 root      20   0   15256    628    404 S  0.0  0.1   0:00.08 upstart-soc+
  582 root      20   0   10220   2412    116 S  0.0  0.4   0:00.00 dhclient
  734 message+  20   0   39220   1028    672 S  0.0  0.2   0:00.04 dbus-daemon
  793 root      20   0   43448   1692   1368 S  0.0  0.3   0:00.01 systemd-log+
  810 syslog    20   0  260072   1268    804 S  0.0  0.2   0:00.01 rsyslogd
  828 root      20   0   15404    640    352 S  0.0  0.1   0:00.04 upstart-fil+
  900 root      20   0   14536    960    800 S  0.0  0.2   0:00.00 getty
  903 root      20   0   14536    956    800 S  0.0  0.2   0:00.00 getty
  907 root      20   0   14536    960    800 S  0.0  0.2   0:00.00 getty
  908 root      20   0   14536    948    800 S  0.0  0.2   0:00.00 getty
  911 root      20   0   14536    956    800 S  0.0  0.2   0:00.00 getty
  949 root      20   0   61368   3080   2400 S  0.0  0.5   0:00.00 sshd
  952 daemon    20   0   19136    168      0 S  0.0  0.0   0:00.00 atd
  953 root      20   0   23652   1020    780 S  0.0  0.2   0:00.00 cron
  957 root      20   0    4364    644    500 S  0.0  0.1   0:00.00 acpid
 1042 mysql     20   0  492656  43032   6812 S  0.0  7.1   0:00.29 mysqld
 1089 root      20   0  278448  15188   9768 S  0.0  2.5   0:00.07 apache2
 1093 www-data  20   0  278472   5860    432 S  0.0  1.0   0:00.00 apache2
 1094 www-data  20   0  278472   5860    432 S  0.0  1.0   0:00.00 apache2
  1095 www-data  20   0  278472   5860    432 S  0.0  1.0   0:00.00 apache2
 1096 www-data  20   0  278472   5860    432 S  0.0  1.0   0:00.00 apache2
 1097 www-data  20   0  278472   5860    432 S  0.0  1.0   0:00.00 apache2
 1132 root      20   0   14536    964    800 S  0.0  0.2   0:00.00 getty
 1258 root      20   0  105632   4240   3260 S  0.0  0.7   0:00.03 sshd
 1260 root      20   0       0      0      0 S  0.0  0.0   0:00.00 kauditd
 1312 ubuntu    20   0  105768   1876    904 S  0.0  0.3   0:00.04 sshd
 1313 ubuntu    20   0   21260   3820   1872 S  0.0  0.6   0:00.12 bash
   